1497611
1517819
1517823
1517828
1517830
1518546
1523591
1533862
1541871
1544601
1544917
1545076
1545101
1545270
1545381
1545543
1545678
1545679
1545981
1546026
1546063
1546070
1546095
1546184
1546216
1546248
1546273
1546534
1546565
1546699
1546891
1546918
1546919
1546920
1547136
1547156
1547242
1547269
1547271
1547511
1547634
1547944
1547984
1548023
1548078
1548104
1548139
1548239
1548241
1548268
1548412
1548437
1548455
1548459
1548470
1548489
1548492
1548633
1548634
1548670
1548709
1548770
1548783
1548820
1548942
1548950
1549004
1549008
1549027
1549069
1549081
1549127
1549277
1549301
1549348
1549471
1549478
1549485
1549516
1549534
1549572
1549635
1549696
1549708
1549709
1549714
1549756
1549777
1549877
1549901
1549942
1549946
1549948
1549972
1550032
1550122
1550125
1550142
1550245
1550344
1550473
1550523
1550573
1550644
1550665
1550678
1550726
1550881
1551061
1551092
1551133
1551167
1551224
1551254
1551322
1551349
1551375
1551660
1551722
1551753
1551760
1551846
1551878
1552114
1552238
1552247
1552281
1552314
1552498
1552549
1552610
1552674
1552722
1552725
1552741
1552799
1552830
1552877
1552878
1552880
1552946
1552953
1553003
1553020
1553047
1553088
1553125
1553138
1553202
1553364
1553519
1553529
1553591
1553663
1553738
1553747
1553821
1553862
1553973
1554009
1554035
1554053
1554066
1554091
1554125
1554174
1554204
1554226
1554398
1554568
1554832
1554916
1555092
1555176
1555209
1555242
1555451
1555551
1555573
1555753
1555767
1555772
1555780
1555785
1555786
1556090
1556140
1556209
1556942
1557087
1557151
1557178
1557231
1557331
1557424
1557498
1557513
1557555
1557593
1557875
1557903
1557927
1557930
1558095
1558279
1558300
1558508
1558521
1558591
1558712
1558757
1558800
1558819
1558922
1558936
1558938
1559136
1559180
1559217
1559225
1559287
1559541
1559566
1559575
1559703
1559814
1559827
1559932
1559962
1560037
1560088
1560304
1560452
1560488
1560548
1560561
1560616
1560629
1560701
1560717
1560743
1560832
1560864
1560913
1560922
1560937
1561080
1561097
1561147
1561169
1561189
1561205
1561216
1561226
1561245
1561289
1561290
1561297
1561390
1561423
1561427
1561431
1561458
1561459
1561460
1561469
1561478
1561491
1561502
1561617
1561633
1561649
1561703
1561739
1561764
1561822
1561842
1561903
1561941
1561946
1561988
1562005
1562047
1562211
1562363
1562368
1562381
1562444
1562499
1562506
1562745
1562759
1562837
1562850
1562941
1562949
1562954
1562958
1562962
1562981
1562988
1563048
1563064
1563093
1563198
1563237
1563387
1563397
1563417
1563450
1563480
1563507
1563511
1563591
1563636
1563708
1563735
1563955
1564085
1564162
1564228
1564229
1564248
1564280
1564289
1564356
1564372
1564408
1564444
1564473
1564521
1564597
1564617
1564621
1564687
1564831
1564893
1564906
1564937
1565031
1565069
1565098
1565259
1565412
1565434
1565484
1565491
1565494
1565496
1565573
1565729
1565742
1565764
1565830
1565836
1565857
1565887
1565897
1565949
1565968
1565988
1566148
1566297
1566394
1566578
1566644
1566852
1566940
1566968
1567023
1567029
1567168
1567335
1567338
1567422
1567458
1567486
1567620
1567621
1567630
1567867
1568005
1568042
1568106
1568178
1568303
1568304
1568336
1568356
1568439
1568506
1568524
1568533
1568575
1568583
1568686
1568740
1568918
1569170
1569388
1569413
1569476
1569688
1569693
1569702
1569704
1569718
1569728
1569731
1569789
1569810
1569816
1569821
1569847
1569858
1569872
1569921
1569956
1570057
1570076
1570079
1570094
1570097
1570198
1570250
1570327
1570328
1570385
1570485
1570543
1570552
1570557
1570631
1570736
1570809
1570824
1570859
1570874
1570882
1570886
1570915
1570943
1571034
1571056
1571254
1571280
1571358
1571361
1571468
1571523
1571565
1571602
1571682
1571766
1571921
1571957
1572234
1572253
1572272
1572297
1572333
1572535
1572563
1572594
1572613
1572625
1572817
1572918
1572933
1572997
1573006
1573019
1573030
1573301
1573323
1573411
1573415
1573421
1573424
1573431
1573451
1573453
1573455
1573457
