1440169
1462113
1462214
1466620
1468719
1476211
1477927
1485395
1497611
1530742
1533862
1543101
1551878
1561189
1564617
1580566
1601257
1630221
1630306
1636273
1639581
1640039
1653281
1654587
1660062
1723410
1729029
1730758
1734142
1734169
1734191
1734211
1734220
1734304
1734347
1734367
1734369
1734378
1734405
1734479
1734502
1734525
1734598
1734665
1734752
1734777
1734800
1734836
1734902
1734908
1734917
1734980
1734990
1735015
1735019
1735021
1735058
1735094
1735145
1735152
1735198
1735254
1735338
1735396
1735458
1735473
1735616
1735624
1735683
1735725
1735779
1735814
1735827
1736233
1736256
1736302
1736466
1736472
1736481
1736519
1736572
1736655
1736730
1736749
1736755
1736818
1736819
1736836
1737017
1737018
1737043
1737103
1737111
1737155
1737203
1737208
1737220
1737226
1737246
1737250
1737282
1737288
1737349
1737372
1737382
1737399
1737421
1737422
1737442
1737457
1737587
1737598
1737612
1737620
1737637
1737640
1737657
1737788
1737800
1737881
1737909
1737980
1737984
1738038
1738219
1738373
1738439
1738519
1738543
1738553
1738558
1738604
1738660
1738661
1738744
1738786
1738793
1738814
1738843
1738897
1738900
1738922
1738928
1738945
1738960
1738969
1738976
1738986
1739013
1739017
1739114
1739131
1739169
1739189
1739206
1739218
1739299
1739309
1739320
1739330
1739371
1739433
1739475
1739499
1739594
1739605
1739623
1739626
1739663
1739714
1739737
1739796
1739822
1739827
1739839
1739846
1739858
1739893
1739901
1739917
1739963
1740089
1740098
1740111
1740117
1740149
1740271
1740328
1740363
1740439
1740482
1740797
1740804
1740976
1741000
1741108
1741193
1741293
1741342
1741362
1741383
1741395
1741403
1741562
1741582
1741651
1741733
1741898
1741995
1742046
1742159
1742163
1742179
1742338
1742355
1742443
1742444
1742461
1742473
1742524
1742546
1742570
1742651
1742696
1742702
1742714
1742725
1742855
1743037
1743170
1743227
1743361
1743373
1743413
1743415
1743463
1743489
1743510
1743579
1743617
1743631
1743652
1743661
1743677
1743681
1743687
1743743
1743780
1743876
1743891
1743917
1743920
1743924
1743931
1743993
1744009
1744015
1744073
1744088
1744095
1744119
1744146
1744147
1744165
1744190
1744195
1744208
1744218
1744223
1744240
1744273
1744296
1744398
1744430
1744434
1744451
1744481
1744491
1744513
1744566
1744607
1744637
1744642
1744643
1744693
1744705
1744728
1744733
1744737
1744753
1744758
1744781
1744809
1744827
1744834
1744872
1744890
1744895
1744901
1744913
1744917
1744932
1744939
1744960
1744984
1744987
1744994
1745003
1745010
1745015
1745021
1745043
1745067
1745070
1745073
1745075
1745080
1745095
1745110
1745114
1745125
1745195
1745223
1745401
1745414
1745502
1745576
1745632
1745638
1745659
1745710
1745725
1745733
1745740
1745771
1745782
1745785
1745822
1745838
1745860
1745906
1745937
1745939
1745947
1746039
1746073
1746087
1746090
1746091
1746101
1746104
1746135
1746151
1746152
1746195
1746197
1746205
1746215
1746217
1746229
1746248
1746249
1746252
1746254
1746256
1746267
1746276
1746282
1746326
1746345
1746349
1746350
1746352
1746402
1746410
1746413
1746421
1746426
1746445
1746457
1746463
1746474
1746503
1746529
1746531
1746536
1746553
1746559
1746619
1746625
1746668
1746687
1746706
1746721
1746723
1746730
1746744
1746747
1746751
1746754
1746773
1746820
1746872
1746880
1746891
1746901
1746980
1747021
1747051
1747082
1747104
1747147
1747222
1747239
1747296
1747394
1747438
1747447
1747481
1747488
1747504
1747509
1747539
1747569
1747611
1747634
1747650
1747668
1747690
1747724
1747789
1747795
1747798
1747802
1747822
1747825
1747855
1747866
1747870
1747884
1747901
1747908
1747995
1748008
1748022
1748026
1748039
1748046
1748097
1748102
1748127
1748128
1748135
1748151
1748153
1748163
1748231
1748232
1748241
1748259
1748261
1748267
1748271
1748324
1748363
1748378
1748391
1748420
1748424
1748426
1748470
1748493
1748496
1748502
1748508
1748511
1748528
1748534
1748540
1748541
1748560
1748565
1748657
1748660
1748669
1748670
1748704
1748763
1748794
1748800
1748805
1748807
1748821
1748826
1748833
1748842
1748864
1748872
1748873
1748882
1748945
1748975
1748978
1748994
1749000
1749024
