1497611
1533862
1580566
1630221
1698275
1698296
1698298
1698341
1698349
1698371
1698448
1698452
1698488
1698604
1698613
1698620
1698656
1698788
1698856
1698938
1698991
1699051
1699060
1699103
1699213
1699224
1699293
1699429
1699445
1699523
1699539
1699548
1699556
1699562
1699572
1699582
1699590
1699593
1699598
1699668
1699705
1699709
1699743
1699782
1699838
1699869
1699883
1699900
1699902
1699926
1699931
1699950
1699956
1699963
1700113
1700118
1700209
1700288
1700297
1700308
1700324
1700330
1700373
1700377
1700438
1700442
1700459
1700463
1700490
1700633
1700712
1700843
1700863
1700881
1700919
1700955
1701013
1701114
1701189
1701193
1701377
1701394
1701681
1701705
1701752
1701787
1701823
1701850
1701857
1701943
1701989
1702083
1702088
1702102
1702156
1702204
1702261
1702378
1702504
1702538
1702565
1702785
1702796
1702896
1702982
1702995
1703001
1703017
1703018
1703027
1703043
1703061
1703108
1703137
1703171
1703389
1703452
1703513
1703550
1703569
1703657
1703692
1703696
1703711
1703810
1703864
1704001
1704069
1704210
1704215
1704251
1704258
1704334
1704340
1704380
1704399
1704436
1704559
1704563
1704585
1704789
1704851
1704866
1704952
1704959
1704972
1705042
1705065
1705114
1705129
1705192
1705231
1705234
1705305
1705325
1705394
1705460
1705527
1705568
1705646
1705648
1705784
1705949
1705997
1706014
1706058
1706059
1706077
1706089
1706095
1706194
1706211
1706239
1706261
1706277
1706280
1706306
1706323
1706351
1706416
1706532
1706544
1706546
1706576
1706684
1706729
1706795
1706881
1707011
1707013
1707029
1707060
1707066
1707070
1707074
1707110
1707218
1707249
1707282
1707330
1707331
1707618
1707622
1707680
1707703
1707715
1707720
1707721
1707726
1707855
1707965
1708001
1708131
1708160
1708182
1708233
1708264
1708266
1708275
1708325
1708350
1708351
1708404
1708465
1708549
1708553
1708641
1708670
1708674
1708678
1708719
1708727
1708734
1708746
1708782
1708826
1708833
1708885
1708941
1708946
1708988
1709071
1709080
1709086
1709089
1709096
1709242
1709259
1709478
1709589
1709755
1709787
1709803
1709807
1709838
1709878
1709974
1709982
1709983
1710006
1710025
1710047
1710088
1710229
1710276
1710334
1710363
1710384
1710391
1710417
1710447
1710489
1710508
1710523
1710524
1710594
1710598
1710613
1710634
1710638
1710644
1710649
1710652
1710689
1710690
1710712
1710734
1710737
1710746
1710773
1710841
1710872
1710891
1710910
1710915
1710916
1710923
1710926
1710946
1710949
1710977
1711008
1711022
1711039
1711045
1711055
1711090
1711111
1711156
1711180
1711279
1711280
1711293
1711306
1711309
1711312
1711354
1711520
1711530
1711533
1711622
1711632
1711681
1711749
1711761
1711809
1711895
1711948
1711980
1711984
1712104
1712138
1712146
1712190
1712219
1712289
1712299
1712476
1712509
1712515
1712582
1712586
1712659
1712744
1712786
1712853
1712860
1712869
1712870
1712944
1713024
1713033
1713050
1713084
1713089
1713094
1713151
1713158
1713160
1713166
1713172
1713200
1713232
1713233
1713278
1713279
1713344
1713359
1713377
1713389
1713390
1713414
1713454
1713498
1713511
1713512
1713536
1713547
1713550
1713589
1713642
1713707
1713906
1713942
1713945
1713947
1713959
1713962
1713984
1714022
1714182
1714265
1714289
1714324
1714405
1714406
1714408
1714435
1714440
1714471
1714482
1714487
1714559
1714580
1714607
1714646
1714663
1714735
1714828
1714977
1714990
1715028
1715116
1715121
1715187
1715189
1715337
1715372
1715413
1715457
1715477
1715494
1715502
1715504
1715506
1715518
1715520
1715534
1715589
1715613
1715668
1715678
1715695
1715779
1715820
1715830
1715877
1715887
1715893
1715932
1715966
1716017
1716037
1716078
1716097
1716102
1716156
1716158
1716174
1716293
1716310
1716365
1716404
1716428
1716440
1716540
1716564
1716849
1716902
1717059
1717185
1717239
1717300
1717357
1717362
1717412
1717415
1717451
1717479
1717539
1717544
1717633
1717736
1717813
1717830
1717846
1717857
1717870
1717880
