1428218
1429561
1436789
1445121
1450792
1454867
1455487
1455737
1466351
1467600
1479205
1482030
1486160
1497611
1499089
1503928
1514802
1517306
1518054
1523265
1526753
1533862
1536160
1542733
1546920
1576204
1580566
1581748
1592743
1611153
1624197
1628105
1630221
1637350
1653207
1683681
1723445
1747104
1753819
1760396
1768004
1768269
1774406
1774915
1776870
1780820
1782413
1784915
1785398
1790383
1798605
1800676
1802267
1807180
1807226
1807252
1807262
1807318
1807411
1807486
1807498
1807556
1807588
1807816
1807881
1807889
1807907
1808027
1808045
1808053
1808072
1808134
1808144
1808145
1808149
1808155
1808332
1808469
1808477
1808542
1808688
1808709
1808741
1809047
1809060
1809091
1809175
1809185
1809225
1809257
1809393
1809399
1809562
1809644
1809703
1809775
1809793
1809805
1809856
1810002
1810020
1810022
1810101
1810118
1810215
1810224
1810270
1810305
1810362
1810621
1810635
1810681
1810811
1810973
1810981
1811225
1811226
1811267
1811273
1811295
1811304
1811310
1811314
1811457
1811474
1811515
1811538
1811594
1811759
1811876
1811882
1811891
1811916
1811918
1811956
1811957
1812062
1812119
1812211
1812254
1812277
1812427
1812471
1812492
1812497
1812500
1812536
1812559
1812566
1812845
1812909
1812914
1812921
1812922
1812925
1813030
1813090
1813136
1813158
1813254
1813281
1813282
1813284
1813331
1813345
1813385
1813421
1813460
1813542
1813560
1813623
1813638
1813653
1813671
1813763
1813777
1813806
1813826
1813843
1813997
1814032
1814189
1814243
1814286
1814329
1814361
1814375
1814442
1814476
1814507
1814520
1814722
1814799
1814811
1814836
1815036
1815079
1815208
1815613
1815629
1815655
1815770
1815797
1815815
1815882
1815924
1815992
1816021
1816048
1816103
1816142
1816169
1816176
1816191
1816256
1816317
1816390
1816477
1816516
1816517
1816564
1816601
1816749
1816761
1816795
1816802
1816829
1816833
1817016
1817060
1817098
1817273
1817286
1817301
1817315
1817390
1817452
1817503
1817515
1817532
1817645
1817676
1817733
1817747
1817764
1817776
1817820
1817838
1817859
1817904
1817960
1818004
1818079
1818080
1818193
1818215
1818332
1818447
1818537
1818679
1818748
1818770
1818783
1818847
1818975
1819009
1819069
1819122
1819133
1819154
1819165
1819181
1819280
1819284
1819321
1819355
1819389
1819466
1819509
1819546
1819561
1819581
1819587
1819775
1819924
1819962
1819972
1819993
1819998
1820026
1820048
1820089
1820109
1820173
1820218
1820272
1820377
1820515
1820544
1820581
1820732
1820918
1821018
1821059
1821108
1821133
1821148
1821156
1821462
1821562
1821617
1822040
1822179
1822195
1822288
1822399
1822515
1822618
1822685
1822703
1822704
1822706
1822709
1822749
1822872
1822893
1822896
1822920
1823018
1823070
1823087
1823090
1823157
1823186
1823207
1823296
1823307
1823360
1823414
1823601
1823637
1823912
1824123
1824156
1824162
1824182
1824198
1824389
1824719
1824764
1824826
1824847
1824865
1824871
1824927
1824958
1824985
1825068
1825243
1825293
1825323
1825384
1825433
1825530
1825536
1825673
1825693
1825872
1825882
1825901
1825927
1825957
1825992
1826069
1826115
1826143
1826172
1826191
1826248
1826400
1826491
1826522
1826530
1826595
1826897
1826920
1826922
1826926
1826939
1826971
1827263
1827303
1827429
1827461
1827506
1827583
1827689
1827743
1827756
1827811
1827834
1827835
1827876
1827877
1827889
1827916
1828000
1828024
1828163
1828247
1828296
1828377
1828432
1828455
1828473
1828519
1828578
1828588
1828645
1828691
1828854
1828907
1829011
1829022
1829120
1829146
1829193
1829215
1829235
1829282
1829366
1829393
1829401
1829488
1829566
1829592
1829600
1829716
1829794
1830050
1830151
1830175
1830485
1830499
1830530
1830574
1830610
1830786
1830880
1830889
1831015
1831016
1831373
1831385
1831409
1831651
1831828
1831894
1831933
1832059
1832211
1832316
1832340
1832369
1832436
1832463
1832491
1832493
1832541
1832658
1832698
1832709
1832789
1832837
1832845
1832928
1833134
1833212
1833324
1833338
1833367
1833688
1833828
1833837
1833838
1833917
1834022
1834034
1834054
1834193
1834206
1834464
1834481
1834527
1834547
1834651
1834655
1834715
1834724
1834734
1834838
1834847
1834852
1834875
1834880
1834886
1834938
1834975
1835033
1835062
1835166
1835212
1835276
1835303
1835406
1835448
1835496
1835561
1835589
1835608
1835655
1835733
1835796
1835850
1835885
1835999
1836010
1836101
1836137
1836224
