1434672
1443740
1449130
1466894
1467885
1467888
1469844
1470084
1473831
1473834
1473866
1473874
1473875
1473905
1473909
1473911
1473943
1473956
1473957
1473965
1473978
1473983
1473986
1473989
1474002
1474004
1474005
1474009
1474011
1474013
1474026
1474030
1474038
1474042
1474044
1474045
1474049
1474051
1474055
1474056
1474066
1474073
1474085
1474087
1474094
1474101
1474102
1474104
1474106
1474124
1474139
1474141
1474152
1474157
1474162
1474167
1474184
1474186
1474187
1474216
1474221
1474222
1474252
1474253
1474258
1474259
1474276
1474289
1474295
1474301
1474303
1474304
1474308
1474314
1474315
1474328
1474331
1474338
1474343
1474351
1474355
1474357
1474360
1474364
1474365
1474368
1474374
1474389
1474397
1474400
1474407
1474416
1474433
1474434
1474435
1474438
1474448
1474474
1474497
1474534
1474538
1474540
1474544
1474547
1474549
1474554
1474556
1474560
1474571
1474575
1474590
1474602
1474622
1474634
1474644
1474655
1474665
1474666
1474676
1474680
1474687
1474702
1474705
1474714
1474721
1474731
1474739
1474742
1474750
1474755
1474770
1474779
1474789
1474796
1474797
1474799
1474809
1474815
1474822
1474835
1474838
1474840
1474873
1474876
1474898
1474904
1474910
1474920
1474929
1474931
1474933
1474940
1474959
1474963
1474966
1474976
1474981
1474991
1474996
1475004
1475007
1475020
1475023
1475026
1475032
1475033
1475034
1475057
1475059
1475064
1475066
1475076
1475080
1475086
1475103
1475115
1475128
1475134
1475135
1475159
1475169
1475170
1475171
1475172
1475186
1475189
1475202
1475216
1475230
1475235
1475236
1475238
1475240
1475246
1475251
1475254
1475262
1475264
1475265
1475278
1475288
1475292
1475296
1475301
1475302
1475304
1475307
1475308
1475312
1475313
1475320
1475333
1475340
1475349
1475357
1475362
1475376
1475384
1475400
1475401
1475406
1475408
1475411
1475445
1475455
1475459
1475481
1475482
1475488
1475509
1475511
1475525
1475535
1475540
1475558
1475564
1475569
1475593
1475608
1475609
1475619
1475624
1475628
1475631
1475633
1475642
1475647
1475650
1475654
1475655
1475672
1475674
1475680
1475702
1475722
1475729
1475746
1475747
1475752
1475755
1475759
1475760
1475761
1475765
1475782
1475789
1475790
1475792
1475796
1475799
1475812
1475819
1475821
1475826
1475828
1475833
1475837
1475853
1475863
1475865
1475867
1475869
1475880
1475908
1475911
1475915
1475916
1475918
1475923
1475934
1475940
1475950
1475952
1475955
1475956
1475959
1475974
1475975
1475981
1475983
1475990
1475996
1475999
1476001
1476009
1476010
1476013
1476014
1476020
1476033
1476038
1476044
1476045
1476046
1476049
1476056
1476059
1476062
1476063
1476066
1476067
1476071
1476073
1476078
1476079
1476082
1476085
1476087
1476099
1476110
1476125
1476126
1476135
1476139
1476144
1476145
1476146
1476147
1476152
1476158
1476163
1476166
1476189
1476197
1476202
1476205
1476211
1476227
1476237
1476245
1476249
1476262
1476264
1476268
1476270
1476273
1476300
1476313
1476317
1476325
1476327
1476329
1476330
1476333
1476341
1476342
1476346
1476351
1476357
1476366
1476371
1476393
1476399
1476403
1476411
1476412
1476413
1476415
1476422
1476424
1476427
1476429
1476433
1476439
1476441
1476442
1476449
1476468
1476474
1476476
1476487
1476503
1476531
1476541
1476543
1476547
1476550
1476556
1476573
1476574
1476579
1476581
1476582
1476596
1476597
1476606
1476611
1476614
1476640
1476655
1476662
1476668
1476694
1476695
1476704
1476720
1476730
1476736
1476743
1476752
1476765
1476774
1476780
1476782
1476784
1476786
1476789
1476791
1476798
1476811
1476823
1476824
1476830
1476833
1476840
1476849
1476871
1476877
1476880
1476886
1476889
1476893
1476895
1476914
1476921
1476934
1476939
1476946
1476948
1476967
1476975
1477010
1477011
1477017
1477019
1477022
1477023
1477031
1477048
1477050
1477052
1477057
1477060
1477063
1477071
1477082
1477089
1477093
1477101
1477103
1477118
1477123
1477133
1477135
1477140
1477143
1477146
1477163
1477166
1477171
1477177
1477197
