1497611
1517819
1517823
1517828
1517830
1533862
1630221
1670956
1670979
1670981
1671006
1671093
1671097
1671120
1671126
1671133
1671157
1671180
1671182
1671214
1671234
1671278
1671298
1671368
1671404
1671450
1671476
1671478
1671486
1671510
1671527
1671597
1671653
1671736
1671832
1671849
1671876
1671881
1671914
1671922
1671925
1671936
1671980
1671983
1672034
1672047
1672074
1672078
1672127
1672129
1672156
1672158
1672165
1672224
1672246
1672259
1672336
1672358
1672360
1672372
1672390
1672397
1672409
1672415
1672421
1672423
1672437
1672450
1672491
1672526
1672530
1672536
1672645
1672683
1672696
1672837
1672850
1672869
1672870
1673026
1673060
1673065
1673086
1673139
1673149
1673189
1673276
1673297
1673317
1673358
1673428
1673431
1673443
1673446
1673517
1673571
1673601
1673727
1673732
1673780
1673846
1673862
1673886
1673912
1673943
1674090
1674370
1674385
1674389
1674400
1674456
1674548
1674629
1674732
1674763
1674812
1674838
1674884
1674891
1674895
1674921
1674987
1675000
1675029
1675046
1675050
1675103
1675120
1675199
1675204
1675235
1675378
1675389
1675431
1675485
1675501
1675502
1675669
1675719
1675756
1675811
1675877
1675955
1676024
1676038
1676065
1676126
1676162
1676233
1676240
1676280
1676313
1676320
1676341
1676354
1676362
1676376
1676431
1676435
1676482
1676539
1676610
1676701
1676722
1676760
1676793
1676851
1676856
1676876
1676934
1676945
1676952
1677005
1677020
1677187
1677200
1677201
1677209
1677246
1677254
1677266
1677297
1677298
1677313
1677349
1677366
1677399
1677420
1677434
1677473
1677498
1677557
1677573
1677581
1677585
1677590
1677599
1677606
1677630
1677680
1677689
1677721
1677775
1677792
1677795
1677797
1677815
1677826
1677859
1677864
1677880
1677914
1677925
1677964
1678072
1678093
1678103
1678114
1678297
1678367
1678371
1678419
1678426
1678464
1678495
1678527
1678544
1678614
1678708
1678717
1678721
1678736
1678780
1678812
1678906
1678928
1679118
1679174
1679221
1679241
1679293
1679301
1679306
1679317
1679318
1679351
1679387
1679402
1679409
1679430
1679461
1679469
1679503
1679518
1679545
1679590
1679658
1679659
1679686
1679742
1679753
1679768
1679811
1679813
1679819
1679822
1679826
1679851
1679854
1679862
1679886
1679896
1679906
1679965
1679985
1679993
1680050
1680057
1680103
1680182
1680223
1680245
1680278
1680295
1680365
1680434
1680449
1680483
1680579
1680618
1680752
1680763
1680766
1680771
1680776
1680848
1680863
1680881
1680935
1680953
1680964
1680988
1681012
1681028
1681084
1681087
1681088
1681104
1681107
1681119
1681122
1681156
1681158
1681160
1681177
1681224
1681240
1681259
1681289
1681307
1681356
1681361
1681408
1681488
1681492
1681499
1681500
1681592
1681626
1681627
1681639
1681641
1681666
1681669
1681684
1681690
1681699
1681738
1681750
1681761
1681809
1681847
1681848
1681852
1681894
1681920
1681936
1682057
1682072
1682076
1682095
1682129
1682131
1682194
1682244
1682247
1682275
1682325
1682328
1682342
1682347
1682363
1682374
1682385
1682399
1682404
1682409
1682413
1682414
1682421
1682432
1682440
1682511
1682535
1682564
1682571
1682579
1682585
1682594
1682596
1682699
1682701
1682729
1682731
1682744
1682765
1682769
1682784
1682797
1682802
1682805
1682808
1682814
1682825
1682826
1682837
1682838
1682850
1682862
1682872
1682881
1682952
1682982
1683036
1683079
1683116
1683124
1683132
1683142
1683246
1683281
1683317
1683337
1683348
1683402
1683430
1683434
1683443
1683444
1683449
1683483
1683484
1683507
1683521
1683525
1683554
1683555
1683681
1683690
1683698
1683743
1683879
1683883
1683943
1684030
1684075
1684105
1684113
1684126
1684167
1684168
1684169
1684195
1684199
1684223
1684242
1684310
1684330
1684348
1684357
1684368
1684369
1684379
1684410
1684458
1684481
1684482
1684484
1684527
1684564
1684576
1684578
1684593
1684621
1684670
1684675
1684688
1684703
1684714
1684764
1684803
1684876
1684945
1684952
1684986
1685131
1685151
1685155
1685160
1685190
