1497611
1502298
1526141
1533862
1580566
1630221
1648167
1685882
1695259
1697464
1697726
1726015
1730260
1730276
1732692
1733847
1782413
1785466
1789238
1826522
1835212
1846963
1848458
1851748
1854562
1855938
1856878
1856961
1861853
1864139
1874022
1874047
1877315
1881572
1882093
1882986
1884436
1884456
1884472
1884473
1884509
1884513
1884546
1884555
1884563
1884610
1884617
1884636
1884667
1884672
1884723
1884740
1884807
1884853
1884886
1884898
1884932
1884943
1884954
1885018
1885056
1885065
1885138
1885181
1885205
1885206
1885228
1885312
1885371
1885564
1885573
1885582
1885636
1885648
1885761
1885830
1885871
1885886
1885893
1885982
1886086
1886123
1886169
1886177
1886273
1886346
1886408
1886443
1886477
1886479
1886513
1886547
1886550
1886698
1886767
1886825
1886826
1886836
1886891
1886982
1887082
1887100
1887105
1887118
1887142
1887143
1887149
1887215
1887222
1887298
1887402
1887416
1887476
1887501
1887510
1887523
1887526
1887541
1887550
1887579
1887621
1887730
1887734
1887738
1887811
1887865
1888057
1888087
1888101
1888341
1888384
1888484
1888567
1888568
1888586
1888695
1888741
1888765
1888807
1888810
1888815
1888867
1888872
1888882
1888888
1888896
1889020
1889071
1889127
1889147
1889157
1889180
1889213
1889225
1889299
1889388
1889390
1889402
1889412
1889460
1889531
1889546
1889656
1889694
1889731
1889758
1889774
1889810
1889811
1889819
1889826
1889841
1889856
1889868
1889902
1890064
1890103
1890146
1890284
1890309
1890452
1890612
1890645
1890654
1890677
1890684
1890803
1890817
1890871
1890979
1891018
1891025
1891055
1891056
1891103
1891278
1891348
1891516
1891527
1891533
1891551
1891587
1891601
1891607
1891633
1891640
1891642
1891721
1891730
1891769
1891771
1891821
1891917
1891967
1891975
1892003
1892018
1892094
1892114
1892155
1892163
1892185
1892201
1892246
1892263
1892284
1892354
1892356
1892375
1892433
1892457
1892481
1892513
1892517
1892576
1892601
1892667
1892670
1892691
1892788
1892800
1892807
1892818
1892855
1892888
1892923
1892967
1893032
1893111
1893136
1893180
1893314
1893342
1893465
1893509
1893521
1893537
1893549
1893557
1893585
1893626
1893685
1893725
1893810
1893839
1893851
1893991
1894138
1894147
1894188
1894209
1894246
1894250
1894255
1894260
1894423
1894461
1894548
1894593
1894657
1894927
1894930
1894976
1895016
1895036
1895135
1895149
1895194
1895265
1895344
1895356
1895360
1895372
1895515
1895525
1895681
1895776
1895802
1895804
1895820
1895826
1895827
1895892
1895907
1895946
1895961
1895964
1896024
1896034
1896108
1896146
1896175
1896287
1896325
1896345
1896380
1896396
1896404
1896557
1896642
1896692
1896716
1896775
1896779
1896855
1896904
1897123
1897188
1897251
1897334
1897405
1897414
1897421
1897460
1897471
1897489
1897499
1897510
1897524
1897593
1897623
1897681
1897684
1897743
1897810
1897826
1897893
1897918
1897938
1897965
1897998
1898120
1898159
1898169
1898268
1898274
1898288
1898364
1898381
1898475
1898483
1898491
1898509
1898542
1898543
1898618
1898663
1898672
1898740
1898744
1898748
1898766
1898770
1898773
1898829
1898846
1898882
1898903
1898944
1898956
1899055
1899132
1899170
1899217
1899267
1899292
1899399
1899408
1899435
1899445
1899471
1899492
1899506
1899546
1899620
1899706
1899790
1899860
1899867
1899895
1900060
1900122
1900130
1900158
1900195
1900224
1900234
1900243
1900285
1900376
1900417
1900460
1900596
1900647
1900673
1900768
1900812
1900813
1900940
1900971
1901093
1901127
1901141
1901166
1901299
1901412
1901447
1901529
1901569
1901599
1901631
1901704
1901741
1901744
1901880
1901921
1902146
1902215
1902240
1902248
1902278
1902387
1902391
1902462
1902498
1902543
1902572
1902574
1902603
1902708
1902962
1902985
1903172
1903400
1903433
1903452
1903462
1903516
1903520
1903531
1903635
1903687
1903716
1903734
1903857
1904044
1904059
1904078
1904100
1904423
1904474
1904479
1904486
1904495
1904582
1904717
1904802
1904873
1904909
1904970
1905048
1905090
1905160
1905313
1905318
1905349
1905361
1905400
1905530
1905550
1905554
1905605
1905625
1905731
1905762
1905780
1905820
1905837
1905874
1906079
1906089
1906142
1906143
1906169
1906213
1906313
1906369
1906381
1906456
1906504
1906782
1906877
1906898
1907018
1907058
1907101
1907150
1907159
1907161
1907165
1907166
1907253
1907346
1907388
1907427
