1439796
1445121
1454867
1455737
1466351
1467600
1478179
1479205
1481112
1482030
1486160
1497611
1499089
1501634
1503928
1504312
1513813
1514802
1517987
1523265
1528966
1533662
1533862
1536160
1542733
1544328
1558591
1565592
1579272
1580566
1581748
1586134
1587483
1592743
1592901
1599337
1618655
1624197
1628105
1630097
1630221
1634351
1638650
1641756
1649154
1652448
1653207
1656730
1659792
1662244
1683681
1684105
1684482
1692112
1695589
1723445
1726534
1729465
1753819
1755085
1756304
1760396
1763560
1766897
1768004
1768269
1772839
1776870
1778823
1779094
1779712
1782413
1784326
1785398
1798605
1800676
1802267
1807907
1810061
1814243
1815655
1816142
1817747
1818080
1818215
1821156
1822706
1822709
1822749
1822872
1822893
1822896
1822920
1823018
1823070
1823087
1823090
1823157
1823186
1823207
1823296
1823307
1823360
1823414
1823601
1823637
1823912
1824123
1824156
1824162
1824182
1824198
1824389
1824719
1824764
1824826
1824847
1824865
1824871
1824927
1824958
1824985
1825068
1825243
1825293
1825323
1825384
1825433
1825530
1825536
1825673
1825693
1825872
1825882
1825901
1825927
1825957
1825992
1826069
1826115
1826143
1826172
1826191
1826248
1826491
1826522
1826530
1826595
1826897
1826920
1826922
1826926
1826939
1826971
1827263
1827303
1827429
1827461
1827506
1827583
1827689
1827743
1827811
1827834
1827835
1827876
1827877
1827889
1827916
1828000
1828024
1828163
1828247
1828296
1828377
1828432
1828455
1828473
1828519
1828588
1828645
1828691
1828854
1828907
1829011
1829022
1829120
1829146
1829193
1829215
1829235
1829282
1829366
1829393
1829401
1829488
1829566
1829592
1829600
1829716
1829794
1830050
1830151
1830175
1830485
1830499
1830530
1830574
1830610
1830786
1830880
1830889
1831015
1831016
1831373
1831385
1831409
1831651
1831828
1831894
1831933
1832059
1832211
1832316
1832340
1832369
1832436
1832463
1832491
1832493
1832541
1832658
1832698
1832709
1832789
1832837
1832845
1832928
1833134
1833212
1833324
1833338
1833367
1833688
1833828
1833837
1833838
1833917
1834022
1834034
1834054
1834193
1834206
1834464
1834481
1834527
1834547
1834651
1834655
1834715
1834724
1834734
1834838
1834847
1834852
1834875
1834880
1834886
1834938
1834975
1835033
1835062
1835166
1835212
1835276
1835303
1835406
1835448
1835496
1835561
1835589
1835608
1835655
1835733
1835796
1835850
1835885
1835999
1836010
1836101
1836137
1836224
1836506
1836539
1836594
1836670
1836689
1836768
1836800
1836865
1836890
1837063
1837131
1837156
1837166
1837225
1837362
1837403
1837508
1837530
1837655
1837704
1837770
1837777
1837847
1838059
1838071
1838110
1838162
1838239
1838356
1838359
1838435
1838516
1838621
1838660
1838668
1838692
1838733
1838763
1838964
1838990
1839075
1839182
1839351
1839537
1839628
1839885
1839927
1840119
1840167
1840298
1840307
1840412
1840554
1840918
1840951
1840973
1841105
1841137
1841138
1841206
1841209
1841216
1841275
1841350
1841386
1841533
1841668
1841688
1841978
1842006
1842015
1842203
1842207
1842261
1842434
1842457
1842498
1842555
1842614
1842864
1842868
1842873
1842974
1842994
1843180
1843188
1843319
1843327
1843338
1843371
1843431
1843469
1843501
1843507
1843532
1843593
1843605
1843653
1843753
1843763
1843800
1843805
1843840
1843879
1843882
1843925
1844093
1844171
1844354
1844458
1844542
1844575
1844757
1844787
1844819
1844826
1844878
1844904
1844957
1845253
1845477
1845516
1845630
1845640
1845825
1845960
1846146
1846363
1846448
1846826
1846847
1846963
1847048
1847175
1847199
1847236
1847297
1847328
1847489
1847593
1847609
1847610
1847632
1847680
1847712
1847838
1847978
1848076
1848201
1848210
1848368
1848403
1848423
1848458
1848491
1848528
1848543
1848575
1848757
1848802
1848803
1848999
1849146
1849189
1849252
1849271
1849317
1849410
1849413
1849485
1849499
1849513
1849566
1849574
1849588
1849729
1849772
1849782
1849814
1849820
1849821
1849827
1849851
1849880
1849893
1849914
1849916
1849973
1850048
1850073
1850148
1850161
1850195
1850253
1850434
1850456
1850480
1850600
1850679
1850712
1850719
1850753
1850766
1850767
1850966
1850977
1850984
1850986
1851022
1851044
1851089
1851178
1851290
1851331
1851352
1851358
1851364
1851394
1851396
1851410
1851417
1851490
1851671
1851748
1851806
1851814
1851898
1851956
1851975
1852007
1852022
1852139
1852223
1852247
1852284
1852285
1852305
1852330
1852361
1852412
1852427
1852580
1852745
1852756
1852835
1852849
1852852
1852918
1852985
1853007
1853083
1853087
1853266
1853313
1853326
1853378
1853581
1853602
1853673
1853731
1853806
1854010
1854168
1854188
1854208
1854221
1854249
1854418
1854431
1854448
1854520
1854562
1855099
